﻿<?xml version="1.0" encoding="UTF-8"?>
<TestRun id="6f9a11ae-6d36-463f-8d8e-265218f3bd29" name="bibhuti pattnayak@MIS-DEV0 2013-03-11 21:42:20" runUser="MIS\bibhuti pattnayak" xmlns="http://microsoft.com/schemas/VisualStudio/TeamTest/2010">
  <TestSettings name="Default Test Settings" id="74166d83-b131-4a73-b1d1-b8a243994ecf">
    <Deployment userDeploymentRoot="C:\Bibhuti\Projects\WindowsApp\BingSearchApp\TestResults" useDefaultDeploymentRoot="false" runDeploymentRoot="bibhuti pattnayak_MIS-DEV0 2013-03-11 21_42_20">
      <DeploymentItem filename="C:\Bibhuti\Projects\WindowsApp\BingSearchApp\BingSeachLibrary\bin\Debug\Bibhuti.BingSeach.Library.dll" />
    </Deployment>
    <Execution>
      <TestTypeSpecific />
      <AgentRule name="Execution Agents">
      </AgentRule>
    </Execution>
  </TestSettings>
  <Times creation="2013-03-11T21:42:20.9320329+00:00" queuing="2013-03-11T21:42:21.3360560+00:00" start="2013-03-11T21:42:21.3760583+00:00" finish="2013-03-11T21:42:23.5201809+00:00" />
  <ResultSummary outcome="Failed">
    <Counters total="6" executed="6" error="0" failed="1" timeout="0" aborted="0" inconclusive="5" passedButRunAborted="0" notRunnable="0" notExecuted="0" disconnected="0" warning="0" passed="0" completed="0" inProgress="0" pending="0" />
  </ResultSummary>
  <TestDefinitions>
    <UnitTest name="SearchTextBingTest" storage="c:\bibhuti\projects\windowsapp\bingsearchapp\bingsearchtddapp\bin\debug\bibhuti.bingseach.tddapp.dll" id="754d8fa7-b9d2-360f-96ba-4f8ae88a9baf">
      <Execution id="e6766947-426b-4891-8fdd-67ed58d39778" />
      <TestMethod codeBase="C:/Bibhuti/Projects/WindowsApp/BingSearchApp/BingSearchTDDApp/bin/Debug/Bibhuti.BingSeach.TDDApp.DLL" adapterTypeName="Microsoft.VisualStudio.TestTools.TestTypes.Unit.UnitTestAdapter, Microsoft.VisualStudio.QualityTools.Tips.UnitTest.Adapter, Version=10.0.0.0, Culture=neutral, PublicKeyToken=b03f5f7f11d50a3a" className="Bibhuti.BingSeach.TDDApp.BingSearchTextTest, Bibhuti.BingSeach.TDDApp, Version=1.0.0.0, Culture=neutral, PublicKeyToken=null" name="SearchTextBingTest" />
    </UnitTest>
    <UnitTest name="UrlTest" storage="c:\bibhuti\projects\windowsapp\bingsearchapp\bingsearchtddapp\bin\debug\bibhuti.bingseach.tddapp.dll" id="3f3ad0bc-49ef-354f-b413-69667f49f2ed">
      <Execution id="2f5d15c0-0e6c-40c5-864b-c396d3bda27f" />
      <TestMethod codeBase="C:/Bibhuti/Projects/WindowsApp/BingSearchApp/BingSearchTDDApp/bin/Debug/Bibhuti.BingSeach.TDDApp.DLL" adapterTypeName="Microsoft.VisualStudio.TestTools.TestTypes.Unit.UnitTestAdapter, Microsoft.VisualStudio.QualityTools.Tips.UnitTest.Adapter, Version=10.0.0.0, Culture=neutral, PublicKeyToken=b03f5f7f11d50a3a" className="Bibhuti.BingSeach.TDDApp.BingSearchReasultTest, Bibhuti.BingSeach.TDDApp, Version=1.0.0.0, Culture=neutral, PublicKeyToken=null" name="UrlTest" />
    </UnitTest>
    <UnitTest name="TitleTest" storage="c:\bibhuti\projects\windowsapp\bingsearchapp\bingsearchtddapp\bin\debug\bibhuti.bingseach.tddapp.dll" id="a69a9de2-660a-6ac1-ed7b-cc41c60624fa">
      <Execution id="c748f3b6-e652-4289-81c7-61e16e13249d" />
      <TestMethod codeBase="C:/Bibhuti/Projects/WindowsApp/BingSearchApp/BingSearchTDDApp/bin/Debug/Bibhuti.BingSeach.TDDApp.DLL" adapterTypeName="Microsoft.VisualStudio.TestTools.TestTypes.Unit.UnitTestAdapter, Microsoft.VisualStudio.QualityTools.Tips.UnitTest.Adapter, Version=10.0.0.0, Culture=neutral, PublicKeyToken=b03f5f7f11d50a3a" className="Bibhuti.BingSeach.TDDApp.BingSearchReasultTest, Bibhuti.BingSeach.TDDApp, Version=1.0.0.0, Culture=neutral, PublicKeyToken=null" name="TitleTest" />
    </UnitTest>
    <UnitTest name="DescriptionTest" storage="c:\bibhuti\projects\windowsapp\bingsearchapp\bingsearchtddapp\bin\debug\bibhuti.bingseach.tddapp.dll" id="7fb25433-3675-7b23-2bd6-9efa12a88984">
      <Execution id="b2c61b2b-e072-4409-9c7a-e049784f912d" />
      <TestMethod codeBase="C:/Bibhuti/Projects/WindowsApp/BingSearchApp/BingSearchTDDApp/bin/Debug/Bibhuti.BingSeach.TDDApp.DLL" adapterTypeName="Microsoft.VisualStudio.TestTools.TestTypes.Unit.UnitTestAdapter, Microsoft.VisualStudio.QualityTools.Tips.UnitTest.Adapter, Version=10.0.0.0, Culture=neutral, PublicKeyToken=b03f5f7f11d50a3a" className="Bibhuti.BingSeach.TDDApp.BingSearchReasultTest, Bibhuti.BingSeach.TDDApp, Version=1.0.0.0, Culture=neutral, PublicKeyToken=null" name="DescriptionTest" />
    </UnitTest>
    <UnitTest name="BingSearchTextConstructorTest" storage="c:\bibhuti\projects\windowsapp\bingsearchapp\bingsearchtddapp\bin\debug\bibhuti.bingseach.tddapp.dll" id="385b187f-5438-59a8-0e10-92816c38207d">
      <Execution id="4137cbe6-4575-457c-a7b8-e9754a6d43f8" />
      <TestMethod codeBase="C:/Bibhuti/Projects/WindowsApp/BingSearchApp/BingSearchTDDApp/bin/Debug/Bibhuti.BingSeach.TDDApp.DLL" adapterTypeName="Microsoft.VisualStudio.TestTools.TestTypes.Unit.UnitTestAdapter, Microsoft.VisualStudio.QualityTools.Tips.UnitTest.Adapter, Version=10.0.0.0, Culture=neutral, PublicKeyToken=b03f5f7f11d50a3a" className="Bibhuti.BingSeach.TDDApp.BingSearchTextTest, Bibhuti.BingSeach.TDDApp, Version=1.0.0.0, Culture=neutral, PublicKeyToken=null" name="BingSearchTextConstructorTest" />
    </UnitTest>
    <UnitTest name="AccountKeyTest" storage="c:\bibhuti\projects\windowsapp\bingsearchapp\bingsearchtddapp\bin\debug\bibhuti.bingseach.tddapp.dll" id="74a3b2ce-576d-14be-3ee3-ac7ebd1bcb38">
      <Execution id="198a7e4f-3a42-4974-97e6-c1b9fe182f0f" />
      <TestMethod codeBase="C:/Bibhuti/Projects/WindowsApp/BingSearchApp/BingSearchTDDApp/bin/Debug/Bibhuti.BingSeach.TDDApp.DLL" adapterTypeName="Microsoft.VisualStudio.TestTools.TestTypes.Unit.UnitTestAdapter, Microsoft.VisualStudio.QualityTools.Tips.UnitTest.Adapter, Version=10.0.0.0, Culture=neutral, PublicKeyToken=b03f5f7f11d50a3a" className="Bibhuti.BingSeach.TDDApp.BingSearchTextTest, Bibhuti.BingSeach.TDDApp, Version=1.0.0.0, Culture=neutral, PublicKeyToken=null" name="AccountKeyTest" />
    </UnitTest>
  </TestDefinitions>
  <TestLists>
    <TestList name="Results Not in a List" id="8c84fa94-04c1-424b-9868-57a2d4851a1d" />
    <TestList name="All Loaded Results" id="19431567-8539-422a-85d7-44ee4e166bda" />
  </TestLists>
  <TestEntries>
    <TestEntry testId="754d8fa7-b9d2-360f-96ba-4f8ae88a9baf" executionId="e6766947-426b-4891-8fdd-67ed58d39778" testListId="8c84fa94-04c1-424b-9868-57a2d4851a1d" />
    <TestEntry testId="7fb25433-3675-7b23-2bd6-9efa12a88984" executionId="b2c61b2b-e072-4409-9c7a-e049784f912d" testListId="8c84fa94-04c1-424b-9868-57a2d4851a1d" />
    <TestEntry testId="a69a9de2-660a-6ac1-ed7b-cc41c60624fa" executionId="c748f3b6-e652-4289-81c7-61e16e13249d" testListId="8c84fa94-04c1-424b-9868-57a2d4851a1d" />
    <TestEntry testId="3f3ad0bc-49ef-354f-b413-69667f49f2ed" executionId="2f5d15c0-0e6c-40c5-864b-c396d3bda27f" testListId="8c84fa94-04c1-424b-9868-57a2d4851a1d" />
    <TestEntry testId="74a3b2ce-576d-14be-3ee3-ac7ebd1bcb38" executionId="198a7e4f-3a42-4974-97e6-c1b9fe182f0f" testListId="8c84fa94-04c1-424b-9868-57a2d4851a1d" />
    <TestEntry testId="385b187f-5438-59a8-0e10-92816c38207d" executionId="4137cbe6-4575-457c-a7b8-e9754a6d43f8" testListId="8c84fa94-04c1-424b-9868-57a2d4851a1d" />
  </TestEntries>
  <Results>
    <UnitTestResult executionId="e6766947-426b-4891-8fdd-67ed58d39778" testId="754d8fa7-b9d2-360f-96ba-4f8ae88a9baf" testName="SearchTextBingTest" computerName="MIS-DEV0" duration="00:00:01.7392332" startTime="2013-03-11T21:42:21.3880590+00:00" endTime="2013-03-11T21:42:23.4071745+00:00" testType="13cdc9d9-ddb5-4fa4-a97d-d965ccfc6d4b" outcome="Failed" testListId="8c84fa94-04c1-424b-9868-57a2d4851a1d" relativeResultsDirectory="e6766947-426b-4891-8fdd-67ed58d39778">
      <Output>
        <ErrorInfo>
          <Message>Assert.AreEqual failed. Expected:&lt;(null)&gt;. Actual:&lt;System.Collections.Generic.List`1[Bibhuti.BingSeach.Library.BingSearchReasult]&gt;. </Message>
          <StackTrace>   at Bibhuti.BingSeach.TDDApp.BingSearchTextTest.SearchTextBingTest() in C:\Bibhuti\Projects\WindowsApp\BingSearchApp\BingSearchTDDApp\BingSearchTextTest.cs:line 89
</StackTrace>
        </ErrorInfo>
      </Output>
    </UnitTestResult>
    <UnitTestResult executionId="b2c61b2b-e072-4409-9c7a-e049784f912d" testId="7fb25433-3675-7b23-2bd6-9efa12a88984" testName="DescriptionTest" computerName="MIS-DEV0" duration="00:00:00.0013234" startTime="2013-03-11T21:42:23.4261756+00:00" endTime="2013-03-11T21:42:23.4351761+00:00" testType="13cdc9d9-ddb5-4fa4-a97d-d965ccfc6d4b" outcome="Inconclusive" testListId="8c84fa94-04c1-424b-9868-57a2d4851a1d" relativeResultsDirectory="b2c61b2b-e072-4409-9c7a-e049784f912d">
      <Output>
        <ErrorInfo>
          <Message>Assert.Inconclusive failed. Verify the correctness of this test method.</Message>
          <StackTrace>   at Bibhuti.BingSeach.TDDApp.BingSearchReasultTest.DescriptionTest() in C:\Bibhuti\Projects\WindowsApp\BingSearchApp\BingSearchTDDApp\BingSearchReasultTest.cs:line 105
</StackTrace>
        </ErrorInfo>
      </Output>
    </UnitTestResult>
    <UnitTestResult executionId="c748f3b6-e652-4289-81c7-61e16e13249d" testId="a69a9de2-660a-6ac1-ed7b-cc41c60624fa" testName="TitleTest" computerName="MIS-DEV0" duration="00:00:00.0010062" startTime="2013-03-11T21:42:23.4381762+00:00" endTime="2013-03-11T21:42:23.4751784+00:00" testType="13cdc9d9-ddb5-4fa4-a97d-d965ccfc6d4b" outcome="Inconclusive" testListId="8c84fa94-04c1-424b-9868-57a2d4851a1d" relativeResultsDirectory="c748f3b6-e652-4289-81c7-61e16e13249d">
      <Output>
        <ErrorInfo>
          <Message>Assert.Inconclusive failed. Verify the correctness of this test method.</Message>
          <StackTrace>   at Bibhuti.BingSeach.TDDApp.BingSearchReasultTest.TitleTest() in C:\Bibhuti\Projects\WindowsApp\BingSearchApp\BingSearchTDDApp\BingSearchReasultTest.cs:line 120
</StackTrace>
        </ErrorInfo>
      </Output>
    </UnitTestResult>
    <UnitTestResult executionId="2f5d15c0-0e6c-40c5-864b-c396d3bda27f" testId="3f3ad0bc-49ef-354f-b413-69667f49f2ed" testName="UrlTest" computerName="MIS-DEV0" duration="00:00:00.0011208" startTime="2013-03-11T21:42:23.4771785+00:00" endTime="2013-03-11T21:42:23.4831788+00:00" testType="13cdc9d9-ddb5-4fa4-a97d-d965ccfc6d4b" outcome="Inconclusive" testListId="8c84fa94-04c1-424b-9868-57a2d4851a1d" relativeResultsDirectory="2f5d15c0-0e6c-40c5-864b-c396d3bda27f">
      <Output>
        <ErrorInfo>
          <Message>Assert.Inconclusive failed. Verify the correctness of this test method.</Message>
          <StackTrace>   at Bibhuti.BingSeach.TDDApp.BingSearchReasultTest.UrlTest() in C:\Bibhuti\Projects\WindowsApp\BingSearchApp\BingSearchTDDApp\BingSearchReasultTest.cs:line 135
</StackTrace>
        </ErrorInfo>
      </Output>
    </UnitTestResult>
    <UnitTestResult executionId="198a7e4f-3a42-4974-97e6-c1b9fe182f0f" testId="74a3b2ce-576d-14be-3ee3-ac7ebd1bcb38" testName="AccountKeyTest" computerName="MIS-DEV0" duration="00:00:00.0010811" startTime="2013-03-11T21:42:23.4851789+00:00" endTime="2013-03-11T21:42:23.4911793+00:00" testType="13cdc9d9-ddb5-4fa4-a97d-d965ccfc6d4b" outcome="Inconclusive" testListId="8c84fa94-04c1-424b-9868-57a2d4851a1d" relativeResultsDirectory="198a7e4f-3a42-4974-97e6-c1b9fe182f0f">
      <Output>
        <ErrorInfo>
          <Message>Assert.Inconclusive failed. Verify the correctness of this test method.</Message>
          <StackTrace>   at Bibhuti.BingSeach.TDDApp.BingSearchTextTest.AccountKeyTest() in C:\Bibhuti\Projects\WindowsApp\BingSearchApp\BingSearchTDDApp\BingSearchTextTest.cs:line 105
</StackTrace>
        </ErrorInfo>
      </Output>
    </UnitTestResult>
    <UnitTestResult executionId="4137cbe6-4575-457c-a7b8-e9754a6d43f8" testId="385b187f-5438-59a8-0e10-92816c38207d" testName="BingSearchTextConstructorTest" computerName="MIS-DEV0" duration="00:00:00.0006983" startTime="2013-03-11T21:42:23.4931794+00:00" endTime="2013-03-11T21:42:23.4971796+00:00" testType="13cdc9d9-ddb5-4fa4-a97d-d965ccfc6d4b" outcome="Inconclusive" testListId="8c84fa94-04c1-424b-9868-57a2d4851a1d" relativeResultsDirectory="4137cbe6-4575-457c-a7b8-e9754a6d43f8">
      <Output>
        <ErrorInfo>
          <Message>Assert.Inconclusive failed. TODO: Implement code to verify target</Message>
          <StackTrace>   at Bibhuti.BingSeach.TDDApp.BingSearchTextTest.BingSearchTextConstructorTest() in C:\Bibhuti\Projects\WindowsApp\BingSearchApp\BingSearchTDDApp\BingSearchTextTest.cs:line 75
</StackTrace>
        </ErrorInfo>
      </Output>
    </UnitTestResult>
  </Results>
</TestRun>