﻿<?xml version="1.0" encoding="UTF-8"?>
<TestRun id="2e2a8503-1f93-47b8-acb2-94eabb191a8f" name="bibhuti pattnayak@MIS-DEV0 2013-03-11 21:52:44" runUser="MIS\bibhuti pattnayak" xmlns="http://microsoft.com/schemas/VisualStudio/TeamTest/2010">
  <TestSettings name="Default Test Settings" id="726c3623-0474-485f-8ebb-3f9658a822e5">
    <Deployment runDeploymentRoot="bibhuti pattnayak_MIS-DEV0 2013-03-11 21_52_44">
      <DeploymentItem filename="C:\Bibhuti\Projects\WindowsApp\BingSearchApp\BingSeachLibrary\bin\Debug\Bibhuti.BingSeach.Library.dll" />
    </Deployment>
    <Execution>
      <TestTypeSpecific />
      <AgentRule name="Execution Agents">
      </AgentRule>
    </Execution>
  </TestSettings>
  <Times creation="2013-03-11T21:52:44.7467131+00:00" queuing="2013-03-11T21:52:46.7498276+00:00" start="2013-03-11T21:52:46.8898356+00:00" finish="2013-03-11T21:56:05.3151849+00:00" />
  <ResultSummary outcome="Error">
    <Counters total="7" executed="2" passed="1" error="0" failed="0" timeout="0" aborted="1" inconclusive="0" passedButRunAborted="0" notRunnable="0" notExecuted="5" disconnected="0" warning="0" completed="0" inProgress="0" pending="0" />
    <RunInfos>
      <RunInfo computerName="MIS-DEV0" outcome="Error" timestamp="2013-03-11T21:56:05.3121847+00:00">
        <Text>Test host process exited unexpectedly.</Text>
      </RunInfo>
    </RunInfos>
  </ResultSummary>
  <TestDefinitions>
    <UnitTest name="SearchTextBingTest" storage="c:\bibhuti\projects\windowsapp\bingsearchapp\bingsearchtddapp\bin\debug\bibhuti.bingseach.tddapp.dll" id="754d8fa7-b9d2-360f-96ba-4f8ae88a9baf">
      <Execution id="c8672fcd-27b8-40ed-b1bf-bc52bd22f9f9" />
      <TestMethod codeBase="C:/Bibhuti/Projects/WindowsApp/BingSearchApp/BingSearchTDDApp/bin/Debug/Bibhuti.BingSeach.TDDApp.DLL" adapterTypeName="Microsoft.VisualStudio.TestTools.TestTypes.Unit.UnitTestAdapter, Microsoft.VisualStudio.QualityTools.Tips.UnitTest.Adapter, Version=10.0.0.0, Culture=neutral, PublicKeyToken=b03f5f7f11d50a3a" className="Bibhuti.BingSeach.TDDApp.BingSearchTextTest, Bibhuti.BingSeach.TDDApp, Version=1.0.0.0, Culture=neutral, PublicKeyToken=null" name="SearchTextBingTest" />
    </UnitTest>
    <UnitTest name="BingSearchReasultConstructorTest" storage="c:\bibhuti\projects\windowsapp\bingsearchapp\bingsearchtddapp\bin\debug\bibhuti.bingseach.tddapp.dll" id="38f5d532-ace6-0fa6-fdd5-51a4ae200a89">
      <Execution id="13ec31a3-9d0d-4050-bd94-3d8df6bf43bc" />
      <TestMethod codeBase="C:/Bibhuti/Projects/WindowsApp/BingSearchApp/BingSearchTDDApp/bin/Debug/Bibhuti.BingSeach.TDDApp.DLL" adapterTypeName="Microsoft.VisualStudio.TestTools.TestTypes.Unit.UnitTestAdapter, Microsoft.VisualStudio.QualityTools.Tips.UnitTest.Adapter, Version=10.0.0.0, Culture=neutral, PublicKeyToken=b03f5f7f11d50a3a" className="Bibhuti.BingSeach.TDDApp.BingSearchReasultTest, Bibhuti.BingSeach.TDDApp, Version=1.0.0.0, Culture=neutral, PublicKeyToken=null" name="BingSearchReasultConstructorTest" />
    </UnitTest>
    <UnitTest name="UrlTest" storage="c:\bibhuti\projects\windowsapp\bingsearchapp\bingsearchtddapp\bin\debug\bibhuti.bingseach.tddapp.dll" id="3f3ad0bc-49ef-354f-b413-69667f49f2ed">
      <Execution id="7794ab6c-d7b8-4819-a588-5d4ca115a52a" />
      <TestMethod codeBase="C:/Bibhuti/Projects/WindowsApp/BingSearchApp/BingSearchTDDApp/bin/Debug/Bibhuti.BingSeach.TDDApp.DLL" adapterTypeName="Microsoft.VisualStudio.TestTools.TestTypes.Unit.UnitTestAdapter, Microsoft.VisualStudio.QualityTools.Tips.UnitTest.Adapter, Version=10.0.0.0, Culture=neutral, PublicKeyToken=b03f5f7f11d50a3a" className="Bibhuti.BingSeach.TDDApp.BingSearchReasultTest, Bibhuti.BingSeach.TDDApp, Version=1.0.0.0, Culture=neutral, PublicKeyToken=null" name="UrlTest" />
    </UnitTest>
    <UnitTest name="TitleTest" storage="c:\bibhuti\projects\windowsapp\bingsearchapp\bingsearchtddapp\bin\debug\bibhuti.bingseach.tddapp.dll" id="a69a9de2-660a-6ac1-ed7b-cc41c60624fa">
      <Execution id="6cf97c12-8423-4a2c-bf10-343bba5a0225" />
      <TestMethod codeBase="C:/Bibhuti/Projects/WindowsApp/BingSearchApp/BingSearchTDDApp/bin/Debug/Bibhuti.BingSeach.TDDApp.DLL" adapterTypeName="Microsoft.VisualStudio.TestTools.TestTypes.Unit.UnitTestAdapter, Microsoft.VisualStudio.QualityTools.Tips.UnitTest.Adapter, Version=10.0.0.0, Culture=neutral, PublicKeyToken=b03f5f7f11d50a3a" className="Bibhuti.BingSeach.TDDApp.BingSearchReasultTest, Bibhuti.BingSeach.TDDApp, Version=1.0.0.0, Culture=neutral, PublicKeyToken=null" name="TitleTest" />
    </UnitTest>
    <UnitTest name="DescriptionTest" storage="c:\bibhuti\projects\windowsapp\bingsearchapp\bingsearchtddapp\bin\debug\bibhuti.bingseach.tddapp.dll" id="7fb25433-3675-7b23-2bd6-9efa12a88984">
      <Execution id="d861b782-05f7-4c3b-b4ea-9a5ae16e5420" />
      <TestMethod codeBase="C:/Bibhuti/Projects/WindowsApp/BingSearchApp/BingSearchTDDApp/bin/Debug/Bibhuti.BingSeach.TDDApp.DLL" adapterTypeName="Microsoft.VisualStudio.TestTools.TestTypes.Unit.UnitTestAdapter, Microsoft.VisualStudio.QualityTools.Tips.UnitTest.Adapter, Version=10.0.0.0, Culture=neutral, PublicKeyToken=b03f5f7f11d50a3a" className="Bibhuti.BingSeach.TDDApp.BingSearchReasultTest, Bibhuti.BingSeach.TDDApp, Version=1.0.0.0, Culture=neutral, PublicKeyToken=null" name="DescriptionTest" />
    </UnitTest>
    <UnitTest name="BingSearchTextConstructorTest" storage="c:\bibhuti\projects\windowsapp\bingsearchapp\bingsearchtddapp\bin\debug\bibhuti.bingseach.tddapp.dll" id="385b187f-5438-59a8-0e10-92816c38207d">
      <Execution id="978dfec8-b09d-445e-a93b-2c77388f2962" />
      <TestMethod codeBase="C:/Bibhuti/Projects/WindowsApp/BingSearchApp/BingSearchTDDApp/bin/Debug/Bibhuti.BingSeach.TDDApp.DLL" adapterTypeName="Microsoft.VisualStudio.TestTools.TestTypes.Unit.UnitTestAdapter, Microsoft.VisualStudio.QualityTools.Tips.UnitTest.Adapter, Version=10.0.0.0, Culture=neutral, PublicKeyToken=b03f5f7f11d50a3a" className="Bibhuti.BingSeach.TDDApp.BingSearchTextTest, Bibhuti.BingSeach.TDDApp, Version=1.0.0.0, Culture=neutral, PublicKeyToken=null" name="BingSearchTextConstructorTest" />
    </UnitTest>
    <UnitTest name="AccountKeyTest" storage="c:\bibhuti\projects\windowsapp\bingsearchapp\bingsearchtddapp\bin\debug\bibhuti.bingseach.tddapp.dll" id="74a3b2ce-576d-14be-3ee3-ac7ebd1bcb38">
      <Execution id="ba5164bf-0727-4c0d-96d7-a3a4cc7a14c1" />
      <TestMethod codeBase="C:/Bibhuti/Projects/WindowsApp/BingSearchApp/BingSearchTDDApp/bin/Debug/Bibhuti.BingSeach.TDDApp.DLL" adapterTypeName="Microsoft.VisualStudio.TestTools.TestTypes.Unit.UnitTestAdapter, Microsoft.VisualStudio.QualityTools.Tips.UnitTest.Adapter, Version=10.0.0.0, Culture=neutral, PublicKeyToken=b03f5f7f11d50a3a" className="Bibhuti.BingSeach.TDDApp.BingSearchTextTest, Bibhuti.BingSeach.TDDApp, Version=1.0.0.0, Culture=neutral, PublicKeyToken=null" name="AccountKeyTest" />
    </UnitTest>
  </TestDefinitions>
  <TestLists>
    <TestList name="Results Not in a List" id="8c84fa94-04c1-424b-9868-57a2d4851a1d" />
    <TestList name="All Loaded Results" id="19431567-8539-422a-85d7-44ee4e166bda" />
  </TestLists>
  <TestEntries>
    <TestEntry testId="38f5d532-ace6-0fa6-fdd5-51a4ae200a89" executionId="13ec31a3-9d0d-4050-bd94-3d8df6bf43bc" testListId="8c84fa94-04c1-424b-9868-57a2d4851a1d" />
    <TestEntry testId="7fb25433-3675-7b23-2bd6-9efa12a88984" executionId="d861b782-05f7-4c3b-b4ea-9a5ae16e5420" testListId="8c84fa94-04c1-424b-9868-57a2d4851a1d" />
    <TestEntry testId="a69a9de2-660a-6ac1-ed7b-cc41c60624fa" executionId="6cf97c12-8423-4a2c-bf10-343bba5a0225" testListId="8c84fa94-04c1-424b-9868-57a2d4851a1d" />
    <TestEntry testId="3f3ad0bc-49ef-354f-b413-69667f49f2ed" executionId="7794ab6c-d7b8-4819-a588-5d4ca115a52a" testListId="8c84fa94-04c1-424b-9868-57a2d4851a1d" />
    <TestEntry testId="385b187f-5438-59a8-0e10-92816c38207d" executionId="978dfec8-b09d-445e-a93b-2c77388f2962" testListId="8c84fa94-04c1-424b-9868-57a2d4851a1d" />
    <TestEntry testId="754d8fa7-b9d2-360f-96ba-4f8ae88a9baf" executionId="c8672fcd-27b8-40ed-b1bf-bc52bd22f9f9" testListId="8c84fa94-04c1-424b-9868-57a2d4851a1d" />
    <TestEntry testId="74a3b2ce-576d-14be-3ee3-ac7ebd1bcb38" executionId="ba5164bf-0727-4c0d-96d7-a3a4cc7a14c1" testListId="8c84fa94-04c1-424b-9868-57a2d4851a1d" />
  </TestEntries>
  <Results>
    <UnitTestResult executionId="13ec31a3-9d0d-4050-bd94-3d8df6bf43bc" testId="38f5d532-ace6-0fa6-fdd5-51a4ae200a89" testName="BingSearchReasultConstructorTest" computerName="MIS-DEV0" duration="00:00:08.0280072" startTime="2013-03-11T21:52:47.0288436+00:00" endTime="2013-03-11T21:52:56.3693778+00:00" testType="13cdc9d9-ddb5-4fa4-a97d-d965ccfc6d4b" outcome="Passed" testListId="8c84fa94-04c1-424b-9868-57a2d4851a1d" relativeResultsDirectory="13ec31a3-9d0d-4050-bd94-3d8df6bf43bc">
    </UnitTestResult>
    <UnitTestResult executionId="d861b782-05f7-4c3b-b4ea-9a5ae16e5420" testId="7fb25433-3675-7b23-2bd6-9efa12a88984" testName="DescriptionTest" computerName="MIS-DEV0" duration="00:03:08.9218058" startTime="2013-03-11T21:52:56.3923791+00:00" endTime="2013-03-11T21:56:05.3141849+00:00" testType="13cdc9d9-ddb5-4fa4-a97d-d965ccfc6d4b" outcome="Aborted" testListId="8c84fa94-04c1-424b-9868-57a2d4851a1d" relativeResultsDirectory="d861b782-05f7-4c3b-b4ea-9a5ae16e5420">
    </UnitTestResult>
    <UnitTestResult executionId="6cf97c12-8423-4a2c-bf10-343bba5a0225" testId="a69a9de2-660a-6ac1-ed7b-cc41c60624fa" testName="TitleTest" computerName="MIS-DEV0" testType="13cdc9d9-ddb5-4fa4-a97d-d965ccfc6d4b" outcome="NotExecuted" testListId="8c84fa94-04c1-424b-9868-57a2d4851a1d" relativeResultsDirectory="6cf97c12-8423-4a2c-bf10-343bba5a0225">
    </UnitTestResult>
    <UnitTestResult executionId="7794ab6c-d7b8-4819-a588-5d4ca115a52a" testId="3f3ad0bc-49ef-354f-b413-69667f49f2ed" testName="UrlTest" computerName="MIS-DEV0" testType="13cdc9d9-ddb5-4fa4-a97d-d965ccfc6d4b" outcome="NotExecuted" testListId="8c84fa94-04c1-424b-9868-57a2d4851a1d" relativeResultsDirectory="7794ab6c-d7b8-4819-a588-5d4ca115a52a">
    </UnitTestResult>
    <UnitTestResult executionId="978dfec8-b09d-445e-a93b-2c77388f2962" testId="385b187f-5438-59a8-0e10-92816c38207d" testName="BingSearchTextConstructorTest" computerName="MIS-DEV0" testType="13cdc9d9-ddb5-4fa4-a97d-d965ccfc6d4b" outcome="NotExecuted" testListId="8c84fa94-04c1-424b-9868-57a2d4851a1d" relativeResultsDirectory="978dfec8-b09d-445e-a93b-2c77388f2962">
    </UnitTestResult>
    <UnitTestResult executionId="c8672fcd-27b8-40ed-b1bf-bc52bd22f9f9" testId="754d8fa7-b9d2-360f-96ba-4f8ae88a9baf" testName="SearchTextBingTest" computerName="MIS-DEV0" testType="13cdc9d9-ddb5-4fa4-a97d-d965ccfc6d4b" outcome="NotExecuted" testListId="8c84fa94-04c1-424b-9868-57a2d4851a1d" relativeResultsDirectory="c8672fcd-27b8-40ed-b1bf-bc52bd22f9f9">
    </UnitTestResult>
    <UnitTestResult executionId="ba5164bf-0727-4c0d-96d7-a3a4cc7a14c1" testId="74a3b2ce-576d-14be-3ee3-ac7ebd1bcb38" testName="AccountKeyTest" computerName="MIS-DEV0" testType="13cdc9d9-ddb5-4fa4-a97d-d965ccfc6d4b" outcome="NotExecuted" testListId="8c84fa94-04c1-424b-9868-57a2d4851a1d" relativeResultsDirectory="ba5164bf-0727-4c0d-96d7-a3a4cc7a14c1">
    </UnitTestResult>
  </Results>
</TestRun>